…
    ## `summarise()` has grouped output by 'season'. You can override using the
    ## `.groups` argument.

``` r
flight_season
```

    ## # A tibble: 77 × 3
    ## # Groups:   season [4]
    ##    season  hour avg_delay
    ##    <chr>  <dbl>     <dbl>
    ##  1 Fall       5    -10.7 
    ##  2 Fall       6     -7.36
    ##  3 Fall       7     -8.61
    ##  4 Fall       8     -6.24
    ##  5 Fall       9     -7.88
    ##  6 Fall      10     -4.53
    ##  7 Fall      11     -4.90
    ##  8 Fall      12     -2.52
    ##  9 Fall      13     -1.31
    ## 10 Fall      14      1.13
    ## # … with 67 more rows
…
``` r
flight_airport <- flights_data %>%
  group_by(origin, hour) %>% 
  summarize(avg_delay = mean(arr_delay, na.rm = TRUE)) %>% 
  arrange(avg_delay)
```

    ## `summarise()` has grouped output by 'origin'. You can override using the
    ## `.groups` argument.

``` r
flight_airport
```

    ## # A tibble: 57 × 3
    ## # Groups:   origin [3]
    ##    origin  hour avg_delay
    ##    <chr>  <dbl>     <dbl>
    ##  1 JFK        7     -6.58
    ##  2 EWR        5     -5.75
    ##  3 LGA        7     -5.67
    ##  4 JFK        5     -4.56
    ##  5 LGA        6     -4.44
    ##  6 EWR        7     -3.96
    ##  7 LGA        9     -3.39
    ##  8 EWR        6     -3.27
    ##  9 LGA        5     -2.61
    ## 10 JFK        8     -2.55
    ## # … with 47 more rows
…
``` r
flight_carrier <- flights_data %>% 
  group_by(carrier, hour) %>% 
  summarize(avg_delay = mean(arr_delay, na.rm = TRUE)) %>% 
  arrange(avg_delay)
```

    ## `summarise()` has grouped output by 'carrier'. You can override using the
    ## `.groups` argument.

``` r
flight_carrier
```

    ## # A tibble: 207 × 3
    ## # Groups:   carrier [16]
    ##    carrier  hour avg_delay
    ##    <chr>   <dbl>     <dbl>
    ##  1 VX         12     -36.3
    ##  2 F9          7     -22  
    ##  3 VX         11     -18.5
    ##  4 AS          7     -18.2
    ##  5 YV         20     -17.8
    ##  6 YV          6     -17.5
    ##  7 YV         18     -15  
    ##  8 YV         15     -14.4
    ##  9 VX          7     -12.7
    ## 10 DL         23     -11.4
    ## # … with 197 more rows
…
